Place,Name,Sex,BirthYear,Age,State,Equipment,Division,BodyweightKg,WeightClassKg,Squat1Kg,Squat2Kg,Squat3Kg,Best3SquatKg,Bench1Kg,Bench2Kg,Bench3Kg,Best3BenchKg,Deadlift1Kg,Deadlift2Kg,Deadlift3Kg,Best3DeadliftKg,TotalKg,Event,BirthDate
1,Jennifer Rudolf,F,1980,42,FL,Wraps,F_MCR_1_APF,78.65,82.5,140,150,165,165,92.5,102.5,-110,102.5,165,177.5,187.5,187.5,455,SBD,
1,Julie Ennis,F,1973,49,FL,Wraps,F_MCR_2_APF,107.05,110,-77.5,85,-92.5,85,50,55,-57.5,55,85,92.5,102.5,102.5,242.5,SBD,
1,Samantha Roeske,F,1993,29,FL,Wraps,F_OCR_APF,48.6,52,80,85,90,90,37.5,45,-47.5,45,82.5,90,95,95,230,SBD,
1,Brittany Lightner,F,1994,29,FL,Wraps,F_OCR_APF,57.8,60,90,100,105,105,52.5,55,-57.5,55,127.5,137.5,142.5,142.5,302.5,SBD,
1,Jazmin Gimon,F,1996,26,FL,Wraps,F_OCR_APF,66,67.5,117.5,125,-132.5,125,67.5,72.5,75,75,125,135,145,145,345,SBD,
1,Cierra J Laxton,F,1994,28,FL,Wraps,F_OCR_APF,81.3,82.5,145,155,165,165,100,110,-115,110,200,225,,225,500,SBD,
2,Regina Cuevas,F,1988,34,FL,Wraps,F_OCR_APF,75.75,82.5,85,90,100,100,57.5,62.5,70,70,110,122.5,132.5,132.5,302.5,SBD,
1,Teya Jackson,F,1991,31,FL,Wraps,F_OCR_APF,87.85,90,130,-140,140,140,62.5,67.5,75,75,137.5,147.5,157.5,157.5,372.5,SBD,
1,Amanda Weekly,F,1987,35,FL,Wraps,F_SCR_APF,82.65,90,122.5,130,140,140,62.5,70,77.5,77.5,132.5,142.5,150,150,367.5,SBD,
1,Jessica Berkery,F,1987,35,FL,Wraps,F_SCR_APF,105.8,110,97.5,105,110,110,75,80,-82.5,80,122.5,132.5,-140,132.5,322.5,SBD,
1,Jennifer Cronley,F,1993,29,PA,Raw,F_OR_APF,72.05,75,,,,,82.5,87.5,-90,87.5,,,,,87.5,B,
1,Tara Eriksen,F,1981,41,FL,Raw,F_MR_1_APF,73.8,75,107.5,120,-127.5,120,67.5,-72.5,-72.5,67.5,140,147.5,-155,147.5,335,SBD,
1,Katia Cordon,F,1988,34,FL,Raw,F_OR_APF,50.8,52,85,90,97.5,97.5,52.5,60,-65,60,87.5,100,107.5,107.5,265,SBD,
1,Valerie Williams,F,1984,38,FL,Raw,F_OR_APF,69.35,75,105,110,-115,110,67.5,72.5,75,75,117.5,125,135,135,320,SBD,
1,Ashley Vallee,F,1990,32,FL,Raw,F_OR_APF,79.3,82.5,90,100,110,110,57.5,65,-70,65,102.5,122.5,137.5,137.5,312.5,SBD,
1,Violeta Morales,F,1988,34,FL,Raw,F_OR_APF,87.75,90,75,85,90,90,52.5,-57.5,-62.5,52.5,90,95,102.5,102.5,245,SBD,
1,Angela Houle,F,1978,44,FL,Single-ply,F_MES_1_APF,75.75,82.5,,,,,,,,,60,-70,77.5,77.5,77.5,D,
1,Daniel Shrank,M,2004,18,FL,Wraps,M_TCR_3_APF,88.8,90,-195,-195,195,195,135,142.5,-147.5,142.5,202.5,217.5,227.5,227.5,565,SBD,
1,Nicholas Evangelista,M,2003,19,FL,Wraps,M_TCR_3_APF,103.9,110,150,160,172.5,172.5,100,-115,-120,100,190,197.5,207.5,207.5,480,SBD,
1,Vance Bussard,M,2000,22,FL,Wraps,M_JCR_APF,81.85,82.5,-165,175,185,185,132.5,142.5,147.5,147.5,202.5,217.5,-227.5,217.5,550,SBD,
1,Christian Bulnes,M,2002,20,FL,Wraps,M_JCR_APF,117.55,125,195,212.5,230,230,110,115,122.5,122.5,195,217.5,232.5,232.5,585,SBD,
1,Erin Del Sasso,M,1981,41,FL,Wraps,M_MCR_1_APF,89.8,90,182.5,192.5,200,200,122.5,132.5,137.5,137.5,205,217.5,227.5,227.5,565,SBD,
1,Tyrone Evans,M,1977,45,FL,Wraps,M_MCR_2_APF,119.1,125,252.5,262.5,-272.5,262.5,160,170,172.5,172.5,-300,312.5,-325,312.5,747.5,SBD,
1,Nathaniel Kirby,M,1998,24,FL,Wraps,M_OCR_APF,59.3,60,115,122.5,-127.5,122.5,80,-87.5,-87.5,80,192.5,210,222.5,222.5,425,SBD,
1,Dillon Desiderato,M,1991,31,FL,Wraps,M_OCR_APF,78.55,82.5,197.5,200,-210,200,120,127.5,-130,127.5,247.5,260,275,275,602.5,SBD,
2,Caleb Platt,M,2001,21,FL,Wraps,M_OCR_APF,78.2,82.5,152.5,160,170,170,-97.5,97.5,102.5,102.5,152.5,162.5,167.5,167.5,440,SBD,
1,Edward Roth,M,1998,25,FL,Wraps,M_OCR_APF,83.3,90,160,172.5,185,185,107.5,117.5,-125,117.5,182.5,200,207.5,207.5,510,SBD,
2,Michael Fromwiller,M,1993,29,FL,Wraps,M_OCR_APF,88.4,90,147.5,165,175,175,115,120,-125,120,187.5,205,-212.5,205,500,SBD,
3,Bradley Smith,M,1997,25,FL,Wraps,M_OCR_APF,86.6,90,145,155,-165,155,92.5,-97.5,-97.5,92.5,155,170,-182.5,170,417.5,SBD,
1,Jason Rosario,M,1985,37,FL,Wraps,M_OCR_APF,98.8,100,310,320,325,325,182.5,192.5,-200,192.5,302.5,-312.5,-312.5,302.5,820,SBD,
2,Cameron Tibbetts,M,1998,25,FL,Wraps,M_OCR_APF,95.2,100,177.5,187.5,195,195,112.5,117.5,120,120,217.5,227.5,232.5,232.5,547.5,SBD,
1,Andrew Shahbazian,M,1990,32,FL,Wraps,M_OCR_APF,108.5,110,342.5,360,370,370,142.5,155,165,165,307.5,-330,-330,307.5,842.5,SBD,
2,Joseph Socarras,M,1996,26,FL,Wraps,M_OCR_APF,103.3,110,240,255,-272.5,255,150,-157.5,-165,150,240,247.5,-260,247.5,652.5,SBD,
3,Luke Bussard,M,1998,24,FL,Wraps,M_OCR_APF,108.6,110,220,230,-250,230,172.5,177.5,185,185,205,220,230,230,645,SBD,
1,Andrew Dixon #1,M,1992,30,FL,Wraps,M_OCR_APF,122,125,282.5,292.5,-302.5,292.5,177.5,185,190,190,287.5,-302.5,-302.5,287.5,770,SBD,
2,Zach Diaczynsky,M,1994,28,FL,Wraps,M_OCR_APF,120.5,125,230,-240,240,240,135,142.5,-150,142.5,245,265,272.5,272.5,655,SBD,
1,Ryan Gillespie,M,1989,34,FL,Wraps,M_OCR_APF,125.65,140,-282.5,282.5,300,300,-180,-180,180,180,267.5,277.5,-287.5,277.5,757.5,SBD,
1,Darshelle Weekly,M,1986,37,FL,Wraps,M_SCR_APF,158.5,140+,157.5,177.5,215,215,135,177.5,190,190,207.5,245,282.5,282.5,687.5,SBD,
1,Brock Houle,M,1980,43,FL,Multi-ply,M_MEM_1_APF,88.5,90,137.5,155,162.5,162.5,105,-115,115,115,142.5,165,180,180,457.5,SBD,
1,Jim Bailey,M,1967,56,FL,Multi-ply,M_MEM_4_APF,95.5,100,215,242.5,-260,242.5,147.5,157.5,-165,157.5,-182.5,202.5,-220,202.5,602.5,SBD,
1,Gavin Shuman,M,2004,18,FL,Raw,M_TR_3_APF,88.3,90,177.5,192.5,202.5,202.5,115,120,125,125,195,212.5,-217.5,212.5,540,SBD,
DQ,Amadeus Reif,M,2001,21,FL,Raw,M_JR_APF,99.2,100,-245,-255,255,255,152.5,165,-182.5,165,-292.5,-312.5,-312.5,,,SBD,
1,Johnny Merryman,M,1990,32,FL,Raw,M_OR_APF,101.7,110,220,-227.5,227.5,227.5,-180,-187.5,187.5,187.5,230,247.5,-265,247.5,662.5,SBD,
2,Alex Zamora,M,1994,28,IL,Raw,M_OR_APF,105.3,110,147.5,162.5,175,175,112.5,120,-130,120,-155,170,185,185,480,SBD,
1,Timothy Stephenson,M,1987,35,FL,Raw,M_SR_APF,92.75,100,165,182.5,-190,182.5,105,112.5,-120,112.5,190,210,217.5,217.5,512.5,SBD,
